2020-07-21 02:05:46,744:DEBUG:certbot._internal.main:certbot version: 1.6.0
2020-07-21 02:05:46,744:DEBUG:certbot._internal.main:Arguments: ['--webroot', '--webroot-path=/usr/share/nginx/html/letsencrypt', '--email', 'alisson.dalmago@gmail.com', '--agree-tos', '--no-eff-email', '-d', 'dalmago4c.mylabserver.com']
2020-07-21 02:05:46,745:DEBUG:certbot._internal.main:Discovered plugins: PluginsRegistry(PluginEntryPoint#manual,PluginEntryPoint#null,PluginEntryPoint#standalone,PluginEntryPoint#webroot)
2020-07-21 02:05:46,768:DEBUG:certbot._internal.log:Root logging level set at 20
2020-07-21 02:05:46,768:INFO:certbot._internal.log:Saving debug log to /var/log/letsencrypt/letsencrypt.log
2020-07-21 02:05:46,773:DEBUG:certbot._internal.plugins.selection:Requested authenticator webroot and installer None
2020-07-21 02:05:46,778:DEBUG:certbot._internal.plugins.selection:Single candidate plugin: * webroot
Description: Place files in webroot directory
Interfaces: IAuthenticator, IPlugin
Entry point: webroot = certbot._internal.plugins.webroot:Authenticator
Initialized: <certbot._internal.plugins.webroot.Authenticator object at 0x7f75963cff40>
Prep: True
2020-07-21 02:05:46,778:DEBUG:certbot._internal.plugins.selection:Selected authenticator <certbot._internal.plugins.webroot.Authenticator object at 0x7f75963cff40> and installer None
2020-07-21 02:05:46,779:INFO:certbot._internal.plugins.selection:Plugins selected: Authenticator webroot, Installer None
2020-07-21 02:05:46,817:DEBUG:certbot._internal.main:Picked account: <Account(RegistrationResource(body=Registration(key=None, contact=(), agreement=None, status=None, terms_of_service_agreed=None, only_return_existing=None, external_account_binding=None), uri='https://acme-v02.api.letsencrypt.org/acme/acct/91470078', new_authzr_uri=None, terms_of_service=None), a0873ed41a3c171d69882db6062c806e, Meta(creation_dt=datetime.datetime(2020, 7, 16, 4, 16, 7, tzinfo=<UTC>), creation_host='dbf12e6cf59a', register_to_eff=None))>
2020-07-21 02:05:46,818:DEBUG:acme.client:Sending GET request to https://acme-v02.api.letsencrypt.org/directory.
2020-07-21 02:05:46,821:DEBUG:urllib3.connectionpool:Starting new HTTPS connection (1): acme-v02.api.letsencrypt.org:443
2020-07-21 02:05:47,113:DEBUG:urllib3.connectionpool:https://acme-v02.api.letsencrypt.org:443 "GET /directory HTTP/1.1" 200 658
2020-07-21 02:05:47,114:DEBUG:acme.client:Received response:
HTTP 200
Server: nginx
Date: Tue, 21 Jul 2020 02:05:47 GMT
Content-Type: application/json
Content-Length: 658
Connection: keep-alive
Cache-Control: public, max-age=0, no-cache
X-Frame-Options: DENY
Strict-Transport-Security: max-age=604800

{
  "keyChange": "https://acme-v02.api.letsencrypt.org/acme/key-change",
  "meta": {
    "caaIdentities": [
      "letsencrypt.org"
    ],
    "termsOfService": "https://letsencrypt.org/documents/LE-SA-v1.2-November-15-2017.pdf",
    "website": "https://letsencrypt.org"
  },
  "newAccount": "https://acme-v02.api.letsencrypt.org/acme/new-acct",
  "newNonce": "https://acme-v02.api.letsencrypt.org/acme/new-nonce",
  "newOrder": "https://acme-v02.api.letsencrypt.org/acme/new-order",
  "revokeCert": "https://acme-v02.api.letsencrypt.org/acme/revoke-cert",
  "v_vXDkQrjVI": "https://community.letsencrypt.org/t/adding-random-entries-to-the-directory/33417"
}
2020-07-21 02:05:47,127:DEBUG:urllib3.connectionpool:Starting new HTTP connection (1): ocsp.int-x3.letsencrypt.org:80
2020-07-21 02:05:47,182:DEBUG:urllib3.connectionpool:http://ocsp.int-x3.letsencrypt.org:80 "POST / HTTP/1.1" 200 527
2020-07-21 02:05:47,184:DEBUG:certbot.ocsp:OCSP response for certificate /etc/letsencrypt/archive/dalmago4c.mylabserver.com/cert1.pem is signed by the certificate's issuer.
2020-07-21 02:05:47,189:DEBUG:certbot.ocsp:OCSP certificate status for /etc/letsencrypt/archive/dalmago4c.mylabserver.com/cert1.pem is: OCSPCertStatus.GOOD
2020-07-21 02:05:47,193:INFO:certbot._internal.renewal:Cert not yet due for renewal
2020-07-21 02:05:47,194:DEBUG:certbot._internal.log:Exiting abnormally:
Traceback (most recent call last):
  File "/usr/local/bin/certbot", line 11, in <module>
    load_entry_point('certbot', 'console_scripts', 'certbot')()
  File "/opt/certbot/src/certbot/certbot/main.py", line 15, in main
    return internal_main.main(cli_args)
  File "/opt/certbot/src/certbot/certbot/_internal/main.py", line 1353, in main
    return config.func(config, plugins)
  File "/opt/certbot/src/certbot/certbot/_internal/main.py", line 1230, in certonly
    should_get_cert, lineage = _find_cert(config, domains, certname)
  File "/opt/certbot/src/certbot/certbot/_internal/main.py", line 286, in _find_cert
    action, lineage = _find_lineage_for_domains_and_certname(config, domains, certname)
  File "/opt/certbot/src/certbot/certbot/_internal/main.py", line 313, in _find_lineage_for_domains_and_certname
    return _find_lineage_for_domains(config, domains)
  File "/opt/certbot/src/certbot/certbot/_internal/main.py", line 263, in _find_lineage_for_domains
    return _handle_identical_cert_request(config, ident_names_cert)
  File "/opt/certbot/src/certbot/certbot/_internal/main.py", line 215, in _handle_identical_cert_request
    response = display.menu(question, choices,
  File "/opt/certbot/src/certbot/certbot/display/util.py", line 153, in menu
    code, selection = self._get_valid_int_ans(len(choices))
  File "/opt/certbot/src/certbot/certbot/display/util.py", line 411, in _get_valid_int_ans
    ans = input_with_timeout(input_msg)
  File "/opt/certbot/src/certbot/certbot/display/util.py", line 85, in input_with_timeout
    raise EOFError
EOFError
2020-07-21 02:05:47,216:ERROR:certbot._internal.log:An unexpected error occurred:
2020-07-21 02:05:47,217:ERROR:certbot._internal.log:EOFError
